…
noaa_future_example <- df_future |> 
  dplyr::filter(reference_datetime == noaa_date,
                datetime >= forecast_date,
                site_id %in% example_site,
                variable %in% variables,
                # Only need a 30 day horizon (today + 30 days, 31 *24)
                horizon < 744,
                # ensemble member 31 only goes to 16 days
                parameter < 31) |> 
  dplyr::collect()
noaa_future_example
```

    ## # A tibble: 43,200 × 12
    ##    site_id prediction variable      height horizon parameter reference_datetime 
    ##    <chr>        <dbl> <chr>         <chr>    <dbl>     <int> <dttm>             
    ##  1 HARV             0 surface_down… surfa…      24         1 2023-08-02 00:00:00
    ##  2 HARV             0 surface_down… surfa…      25         1 2023-08-02 00:00:00
    ##  3 HARV             0 surface_down… surfa…      26         1 2023-08-02 00:00:00
    ##  4 HARV             0 surface_down… surfa…      27         1 2023-08-02 00:00:00
    ##  5 HARV             0 surface_down… surfa…      28         1 2023-08-02 00:00:00
    ##  6 HARV             0 surface_down… surfa…      29         1 2023-08-02 00:00:00
    ##  7 HARV             0 surface_down… surfa…      30         1 2023-08-02 00:00:00
    ##  8 HARV             0 surface_down… surfa…      31         1 2023-08-02 00:00:00
    ##  9 HARV             0 surface_down… surfa…      32         1 2023-08-02 00:00:00
    ## 10 HARV             0 surface_down… surfa…      33         1 2023-08-02 00:00:00
    ## # ℹ 43,190 more rows
    ## # ℹ 5 more variables: forecast_valid <chr>, datetime <dttm>, longitude <dbl>,
    ## #   latitude <dbl>, family <chr>
…
noaa_future_daily_example
```

    ## # A tibble: 900 × 5
    ## # Groups:   datetime, site_id, parameter [900]
    ##    datetime   site_id air_temperature shortwave parameter
    ##    <date>     <chr>             <dbl>     <dbl>     <int>
    ##  1 2023-08-03 HARV               17.3      233.         1
    ##  2 2023-08-03 HARV               16.1      295.         2
    ##  3 2023-08-03 HARV               16.9      296.         3
    ##  4 2023-08-03 HARV               16.9      303.         4
    ##  5 2023-08-03 HARV               17.5      316.         5
    ##  6 2023-08-03 HARV               16.7      144.         6
    ##  7 2023-08-03 HARV               17.2      280.         7
    ##  8 2023-08-03 HARV               16.8      254.         8
    ##  9 2023-08-03 HARV               17.1      227.         9
    ## 10 2023-08-03 HARV               17.2      287.        10
    ## # ℹ 890 more rows
…
